…
Pull out the top 50 of human into a data frame

``` r
human <- lapply(DGEs[4], data.frame)
human_df <- do.call("cbind", human) %>%
  slice(1:50) %>%
  rename(SYMBOL = Human.SYMBOL, X = Human.X) %>%
  droplevels() %>%
  mutate(SYMBOL = as.character(SYMBOL))
human_df
```

    ## # A tibble: 50 x 4
    ##    Human.log2FoldChange  SYMBOL Human.ENTREZID               X
    ##                   <dbl>   <chr>         <fctr>          <fctr>
    ##  1            10.576453   RSAD2          91543 ENSG00000134321
    ##  2            10.467416    OAS1           4938 ENSG00000089127
    ##  3            10.210544  CXCL10           3627 ENSG00000169245
    ##  4            10.206683  CXCL11           6373 ENSG00000169248
    ##  5            10.010123    OASL           8638 ENSG00000135114
    ##  6             9.968366 TNFSF10           8743 ENSG00000121858
    ##  7             9.654012    CD38            952 ENSG00000004468
    ##  8             9.539248    IDO1           3620 ENSG00000131203
    ##  9             9.386738     MX1           4599 ENSG00000157601
    ## 10             9.339168   IL4I1         259307 ENSG00000104951
    ## # ... with 40 more rows
…
``` r
##As seen here, there are numerous instances where the mouse gene comes up as NA for subsequent columns - i.e. was filtered out earlier based off padj <=0.05 and/or missing log2FoldChange values, etc. The table shown also demonstrates the difference in some of the gene SYMBOLs as well as the varying homology type for some of the genes listed (for example, OAS1 murine orthologs are one to many with Oas1a, 1b, etc.).
mouse_limited <- left_join(mouse_hum_orthos, mouse_df, by = "X") 
```

    ## Warning: Column `X` joining factors with different levels, coercing to
    ## character vector

``` r
mouse_limited
```

    ## # A tibble: 385 x 6
    ##    SYMBOL                  X Mouse.homology.type log2FoldChange
    ##     <chr>              <chr>              <fctr>          <dbl>
    ##  1  RSAD2 ENSMUSG00000020641    ortholog_one2one       8.294807
    ##  2  RSAD2 ENSMUSG00000020641    ortholog_one2one       8.294807
    ##  3  RSAD2 ENSMUSG00000020641    ortholog_one2one       8.294807
    ##  4  RSAD2 ENSMUSG00000020641    ortholog_one2one       8.294807
    ##  5  RSAD2 ENSMUSG00000020641    ortholog_one2one       8.294807
    ##  6   OAS1 ENSMUSG00000032623   ortholog_one2many             NA
    ##  7   OAS1 ENSMUSG00000032623   ortholog_one2many             NA
    ##  8   OAS1 ENSMUSG00000032623   ortholog_one2many             NA
    ##  9   OAS1 ENSMUSG00000032623   ortholog_one2many             NA
    ## 10   OAS1 ENSMUSG00000032623   ortholog_one2many             NA
    ## # ... with 375 more rows, and 2 more variables: Mouse.SYMBOL <chr>,
    ## #   ENTREZID <fctr>
…
``` r
##To pull out all distinct mouse ENSEMBL IDs in this list.
##Note that anything with an NA is across the board for log2FoldChange, mouse SYMBOL, and mouse ENTREZ ID.
##Thus, these latter instances, there is an ortholog, but by our filter of the murine DGE profile, the gene
##for all intents and purposes did not change expression based off this filter. 
mouse_distinct <- distinct(mouse_limited, X, .keep_all = TRUE) %>%
  filter(!is.na(X))
mouse_distinct
```

    ## # A tibble: 54 x 6
    ##    SYMBOL                  X Mouse.homology.type log2FoldChange
    ##     <chr>              <chr>              <fctr>          <dbl>
    ##  1  RSAD2 ENSMUSG00000020641    ortholog_one2one       8.294807
    ##  2   OAS1 ENSMUSG00000032623   ortholog_one2many             NA
    ##  3   OAS1 ENSMUSG00000029605   ortholog_one2many             NA
    ##  4   OAS1 ENSMUSG00000001168   ortholog_one2many             NA
    ##  5   OAS1 ENSMUSG00000066867   ortholog_one2many             NA
    ##  6   OAS1 ENSMUSG00000052776   ortholog_one2many       6.191997
    ##  7   OAS1 ENSMUSG00000066861   ortholog_one2many       7.556869
    ##  8   OAS1 ENSMUSG00000053765   ortholog_one2many             NA
    ##  9   OAS1 ENSMUSG00000001166   ortholog_one2many       3.008639
    ## 10 CXCL10 ENSMUSG00000034855    ortholog_one2one       8.563931
    ## # ... with 44 more rows, and 2 more variables: Mouse.SYMBOL <chr>,
    ## #   ENTREZID <fctr>

``` r
##So from the table above we can now get rid of all the NA values.
mouse_distinct_cleaned <- na.omit(mouse_distinct)
mouse_distinct_cleaned
```

    ## # A tibble: 35 x 6
    ##     SYMBOL                  X Mouse.homology.type log2FoldChange
    ##      <chr>              <chr>              <fctr>          <dbl>
    ##  1   RSAD2 ENSMUSG00000020641    ortholog_one2one       8.294807
    ##  2    OAS1 ENSMUSG00000052776   ortholog_one2many       6.191997
    ##  3    OAS1 ENSMUSG00000066861   ortholog_one2many       7.556869
    ##  4    OAS1 ENSMUSG00000001166   ortholog_one2many       3.008639
    ##  5  CXCL10 ENSMUSG00000034855    ortholog_one2one       8.563931
    ##  6  CXCL11 ENSMUSG00000060183    ortholog_one2one       6.771402
    ##  7    OASL ENSMUSG00000041827    ortholog_one2one       7.581560
    ##  8 TNFSF10 ENSMUSG00000039304    ortholog_one2one       2.575341
    ##  9     MX1 ENSMUSG00000000386   ortholog_one2many       7.906548
    ## 10     MX1 ENSMUSG00000023341   ortholog_one2many       6.996945
    ## # ... with 25 more rows, and 2 more variables: Mouse.SYMBOL <chr>,
    ## #   ENTREZID <fctr>
…
